xof 0303txt 0032


template VertexDuplicationIndices { 
 <b8d65549-d7c9-4995-89cf-53a9a8b031e3>
 DWORD nIndices;
 DWORD nOriginalVertices;
 array DWORD indices[nIndices];
}
template XSkinMeshHeader {
 <3cf169ce-ff7c-44ab-93c0-f78f62d172e2>
 WORD nMaxSkinWeightsPerVertex;
 WORD nMaxSkinWeightsPerFace;
 WORD nBones;
}
template SkinWeights {
 <6f0d123b-bad2-4167-a0d0-80224f25fabb>
 STRING transformNodeName;
 DWORD nWeights;
 array DWORD vertexIndices[nWeights];
 array float weights[nWeights];
 Matrix4x4 matrixOffset;
}

Frame RootFrame {

  FrameTransformMatrix {
    1.000000,0.000000,0.000000,0.000000,
    0.000000,1.000000,0.000000,0.000000,
    0.000000,0.000000,1.000000,0.000000,
    0.000000,0.000000,0.000000,1.000000;;
  }
Frame Mesh {

  FrameTransformMatrix {
    1.000000,0.000000,0.000000,0.000000,
    0.000000,1.000000,0.000000,0.000000,
    0.000000,0.000000,1.000000,0.000000,
    0.000000,0.000000,0.000000,1.000000;;
  }
Mesh {
402;
0.817300; -0.431900; 0.202700;,
0.686700; 0.440900; 0.202700;,
0.686700; -0.431900; 0.202700;,
0.817300; -0.431900; 0.202700;,
0.817300; 0.440900; 0.202700;,
0.686700; 0.440900; 0.202700;,
0.827100; -0.452300; 0.053200;,
0.817300; 0.440900; 0.202700;,
0.817300; -0.431900; 0.202700;,
0.827100; -0.452300; 0.053200;,
0.827100; 0.461400; 0.053200;,
0.817300; 0.440900; 0.202700;,
0.686700; -0.431900; 0.202700;,
0.676300; -0.452300; 0.053200;,
0.827100; -0.452300; 0.053200;,
0.827100; -0.452300; 0.053200;,
0.817300; -0.431900; 0.202700;,
0.686700; -0.431900; 0.202700;,
0.676300; 0.461400; 0.053200;,
0.686700; 0.440900; 0.202700;,
0.827100; 0.461400; 0.053200;,
0.817300; 0.440900; 0.202700;,
0.827100; 0.461400; 0.053200;,
0.686700; 0.440900; 0.202700;,
0.696400; 0.441500; 0.022900;,
0.827100; 0.461400; 0.053200;,
0.806600; 0.441500; 0.022900;,
0.827100; 0.461400; 0.053200;,
0.696400; 0.441500; 0.022900;,
0.676300; 0.461400; 0.053200;,
0.806600; -0.432100; 0.022900;,
0.806600; 0.441500; 0.022900;,
0.827100; 0.461400; 0.053200;,
0.827100; 0.461400; 0.053200;,
0.827100; -0.452300; 0.053200;,
0.806600; -0.432100; 0.022900;,
0.696400; -0.432100; 0.022900;,
0.806600; -0.432100; 0.022900;,
0.827100; -0.452300; 0.053200;,
0.827100; -0.452300; 0.053200;,
0.676300; -0.452300; 0.053200;,
0.696400; -0.432100; 0.022900;,
0.615300; 0.490300; 0.272500;,
0.615500; -0.482400; 0.272500;,
0.818100; -0.482400; 0.272500;,
0.818100; -0.482400; 0.272500;,
0.820900; 0.489700; 0.272500;,
0.615300; 0.490300; 0.272500;,
0.825200; 0.501000; 0.121400;,
0.822200; 0.501000; 0.167000;,
0.822200; 0.370300; 0.167000;,
0.825200; 0.370300; 0.121400;,
0.825200; 0.501000; 0.121400;,
0.822200; 0.370300; 0.167000;,
0.687300; 0.500800; 0.121400;,
0.684300; 0.500800; 0.167000;,
0.822200; 0.501000; 0.167000;,
0.825200; 0.501000; 0.121400;,
0.687300; 0.500800; 0.121400;,
0.822200; 0.501000; 0.167000;,
0.822400; 0.423900; 0.268200;,
0.822400; 0.469500; 0.059300;,
0.822400; 0.473800; 0.268000;,
0.822400; 0.423900; 0.268200;,
0.822400; 0.370300; 0.166900;,
0.822400; 0.469500; 0.059300;,
0.825200; -0.464300; 0.121400;,
0.822200; -0.361100; 0.167000;,
0.822200; -0.464300; 0.167000;,
0.825200; -0.361100; 0.121400;,
0.822200; -0.361100; 0.167000;,
0.825200; -0.464300; 0.121400;,
0.687300; -0.464000; 0.121400;,
0.822200; -0.464300; 0.167000;,
0.684300; -0.464000; 0.167000;,
0.825200; -0.464300; 0.121400;,
0.822200; -0.464300; 0.167000;,
0.687300; -0.464000; 0.121400;,
0.822400; -0.414700; 0.268200;,
0.822400; -0.464600; 0.268000;,
0.822400; -0.460300; 0.059300;,
0.822400; -0.414700; 0.268200;,
0.822400; -0.460300; 0.059300;,
0.822400; -0.361100; 0.166900;,
0.750800; -0.462700; 0.352000;,
0.750800; -0.462700; 0.267900;,
0.807200; -0.462700; 0.267900;,
0.807200; -0.462700; 0.267900;,
0.807200; -0.462700; 0.352000;,
0.750800; -0.462700; 0.352000;,
0.750800; -0.419000; 0.267900;,
0.750800; -0.419000; 0.352000;,
0.807200; -0.419000; 0.267900;,
0.807200; -0.419000; 0.352000;,
0.807200; -0.419000; 0.267900;,
0.750800; -0.419000; 0.352000;,
0.807200; -0.462700; 0.267900;,
0.807200; -0.419000; 0.352000;,
0.807200; -0.462700; 0.352000;,
0.807200; -0.462700; 0.267900;,
0.807200; -0.419000; 0.267900;,
0.807200; -0.419000; 0.352000;,
0.750800; 0.426800; 0.352000;,
0.750800; 0.426800; 0.267900;,
0.807200; 0.426800; 0.267900;,
0.807200; 0.426800; 0.267900;,
0.807200; 0.426800; 0.352000;,
0.750800; 0.426800; 0.352000;,
0.750800; 0.470500; 0.267900;,
0.750800; 0.470500; 0.352000;,
0.807200; 0.470500; 0.267900;,
0.807200; 0.470500; 0.352000;,
0.807200; 0.470500; 0.267900;,
0.750800; 0.470500; 0.352000;,
0.807200; 0.426800; 0.267900;,
0.807200; 0.470500; 0.352000;,
0.807200; 0.426800; 0.352000;,
0.807200; 0.426800; 0.267900;,
0.807200; 0.470500; 0.267900;,
0.807200; 0.470500; 0.352000;,
0.857100; 0.143800; 0.632800;,
0.733800; 0.345500; 0.632800;,
0.733800; 0.143800; 0.632800;,
0.857100; 0.143800; 0.632800;,
0.857100; 0.345500; 0.632800;,
0.733800; 0.345500; 0.632800;,
0.857100; 0.143800; 0.272600;,
0.857100; 0.345500; 0.632800;,
0.857100; 0.143800; 0.632800;,
0.857100; 0.143800; 0.272600;,
0.857100; 0.345500; 0.272600;,
0.857100; 0.345500; 0.632800;,
0.733800; 0.143800; 0.632800;,
0.733800; 0.143800; 0.272600;,
0.857100; 0.143800; 0.272600;,
0.857100; 0.143800; 0.272600;,
0.857100; 0.143800; 0.632800;,
0.733800; 0.143800; 0.632800;,
0.733800; 0.345500; 0.272600;,
0.733800; 0.345500; 0.632800;,
0.857100; 0.345500; 0.272600;,
0.857100; 0.345500; 0.632800;,
0.857100; 0.345500; 0.272600;,
0.733800; 0.345500; 0.632800;,
0.707500; -1.219900; 0.652800;,
0.707500; 1.226800; 0.257900;,
0.707500; 1.227400; 0.654400;,
0.707500; 1.226800; 0.257900;,
0.707500; -1.219900; 0.652800;,
0.707500; -1.220100; 0.257700;,
0.707100; 0.660400; 0.262400;,
0.707100; -0.656300; 0.260500;,
0.707100; -0.656300; 0.129800;,
0.707100; -0.656300; 0.129800;,
0.707100; 0.660400; 0.129800;,
0.707100; 0.660400; 0.262400;,
0.713000; -0.607600; 0.623300;,
0.713000; -0.239400; 0.271000;,
0.713000; -0.239400; 0.623300;,
0.713000; -0.239400; 0.271000;,
0.713000; -0.607600; 0.623300;,
0.713000; -0.607600; 0.271000;,
0.815500; 0.074300; 0.632800;,
0.775400; 0.143700; 0.632800;,
0.775400; 0.074300; 0.632800;,
0.815500; 0.074300; 0.632800;,
0.815500; 0.143700; 0.632800;,
0.775400; 0.143700; 0.632800;,
0.815500; 0.074300; 0.493500;,
0.815500; 0.143700; 0.632800;,
0.815500; 0.074300; 0.632800;,
0.815500; 0.074300; 0.493500;,
0.815500; 0.143700; 0.493500;,
0.815500; 0.143700; 0.632800;,
0.775400; 0.074300; 0.632800;,
0.775400; 0.074300; 0.493500;,
0.815500; 0.074300; 0.493500;,
0.815500; 0.074300; 0.493500;,
0.815500; 0.074300; 0.632800;,
0.775400; 0.074300; 0.632800;,
0.815400; 0.074200; 0.493700;,
0.857000; 0.143800; 0.493700;,
0.815400; 0.143800; 0.493700;,
0.815400; 0.074200; 0.272500;,
0.857000; 0.143800; 0.493700;,
0.815400; 0.074200; 0.493700;,
0.815400; 0.074200; 0.272500;,
0.857000; 0.143800; 0.272500;,
0.857000; 0.143800; 0.493700;,
0.707500; -0.237100; 0.627900;,
0.744200; -0.030500; 0.270200;,
0.744200; -0.030500; 0.628600;,
0.744200; -0.030500; 0.270200;,
0.707500; -0.237100; 0.627900;,
0.707500; -0.237100; 0.270800;,
0.707500; 0.176100; 0.627900;,
0.744200; -0.030500; 0.628600;,
0.744200; -0.030500; 0.270200;,
0.744200; -0.030500; 0.270200;,
0.707500; 0.176100; 0.270800;,
0.707500; 0.176100; 0.627900;,
-0.817300; -0.431900; 0.202700;,
-0.686600; -0.431900; 0.202700;,
-0.686600; 0.440900; 0.202700;,
-0.817300; -0.431900; 0.202700;,
-0.686600; 0.440900; 0.202700;,
-0.817300; 0.440900; 0.202700;,
-0.827100; -0.452300; 0.053200;,
-0.817300; -0.431900; 0.202700;,
-0.817300; 0.440900; 0.202700;,
-0.827100; -0.452300; 0.053200;,
-0.817300; 0.440900; 0.202700;,
-0.827100; 0.461400; 0.053200;,
-0.686600; -0.431900; 0.202700;,
-0.827100; -0.452300; 0.053200;,
-0.676300; -0.452300; 0.053200;,
-0.827100; -0.452300; 0.053200;,
-0.686600; -0.431900; 0.202700;,
-0.817300; -0.431900; 0.202700;,
-0.676300; 0.461400; 0.053200;,
-0.827100; 0.461400; 0.053200;,
-0.686600; 0.440900; 0.202700;,
-0.817300; 0.440900; 0.202700;,
-0.686600; 0.440900; 0.202700;,
-0.827100; 0.461400; 0.053200;,
-0.696400; 0.441500; 0.022900;,
-0.806600; 0.441500; 0.022900;,
-0.827100; 0.461400; 0.053200;,
-0.827100; 0.461400; 0.053200;,
-0.676300; 0.461400; 0.053200;,
-0.696400; 0.441500; 0.022900;,
-0.806600; -0.432100; 0.022900;,
-0.827100; 0.461400; 0.053200;,
-0.806600; 0.441500; 0.022900;,
-0.827100; 0.461400; 0.053200;,
-0.806600; -0.432100; 0.022900;,
-0.827100; -0.452300; 0.053200;,
-0.696400; -0.432100; 0.022900;,
-0.827100; -0.452300; 0.053200;,
-0.806600; -0.432100; 0.022900;,
-0.827100; -0.452300; 0.053200;,
-0.696400; -0.432100; 0.022900;,
-0.676300; -0.452300; 0.053200;,
-0.615300; 0.490300; 0.272500;,
-0.818100; -0.482400; 0.272500;,
-0.615400; -0.482400; 0.272500;,
-0.818100; -0.482400; 0.272500;,
-0.615300; 0.490300; 0.272500;,
-0.820800; 0.489700; 0.272500;,
-0.825200; 0.501000; 0.121400;,
-0.822200; 0.370300; 0.167000;,
-0.822200; 0.501000; 0.167000;,
-0.825200; 0.370300; 0.121400;,
-0.822200; 0.370300; 0.167000;,
-0.825200; 0.501000; 0.121400;,
-0.687300; 0.500800; 0.121400;,
-0.822200; 0.501000; 0.167000;,
-0.684300; 0.500800; 0.167000;,
-0.825200; 0.501000; 0.121400;,
-0.822200; 0.501000; 0.167000;,
-0.687300; 0.500800; 0.121400;,
-0.822400; 0.423900; 0.268200;,
-0.822400; 0.473800; 0.268000;,
-0.822400; 0.469500; 0.059300;,
-0.822400; 0.423900; 0.268200;,
-0.822400; 0.469500; 0.059300;,
-0.822400; 0.370300; 0.166900;,
-0.825200; -0.464300; 0.121400;,
-0.822200; -0.464300; 0.167000;,
-0.822200; -0.361100; 0.167000;,
-0.825200; -0.361100; 0.121400;,
-0.825200; -0.464300; 0.121400;,
-0.822200; -0.361100; 0.167000;,
-0.687300; -0.464000; 0.121400;,
-0.684300; -0.464000; 0.167000;,
-0.822200; -0.464300; 0.167000;,
-0.825200; -0.464300; 0.121400;,
-0.687300; -0.464000; 0.121400;,
-0.822200; -0.464300; 0.167000;,
-0.822400; -0.414700; 0.268200;,
-0.822400; -0.460300; 0.059300;,
-0.822400; -0.464600; 0.268000;,
-0.822400; -0.414700; 0.268200;,
-0.822400; -0.361100; 0.166900;,
-0.822400; -0.460300; 0.059300;,
-0.750700; -0.462700; 0.352000;,
-0.807200; -0.462700; 0.267900;,
-0.750700; -0.462700; 0.267900;,
-0.807200; -0.462700; 0.267900;,
-0.750700; -0.462700; 0.352000;,
-0.807200; -0.462700; 0.352000;,
-0.750700; -0.419000; 0.267900;,
-0.807200; -0.419000; 0.267900;,
-0.750700; -0.419000; 0.352000;,
-0.807200; -0.419000; 0.352000;,
-0.750700; -0.419000; 0.352000;,
-0.807200; -0.419000; 0.267900;,
-0.807200; -0.462700; 0.267900;,
-0.807200; -0.462700; 0.352000;,
-0.807200; -0.419000; 0.352000;,
-0.807200; -0.462700; 0.267900;,
-0.807200; -0.419000; 0.352000;,
-0.807200; -0.419000; 0.267900;,
-0.750700; 0.426800; 0.352000;,
-0.807200; 0.426800; 0.267900;,
-0.750700; 0.426800; 0.267900;,
-0.807200; 0.426800; 0.267900;,
-0.750700; 0.426800; 0.352000;,
-0.807200; 0.426800; 0.352000;,
-0.750700; 0.470500; 0.267900;,
-0.807200; 0.470500; 0.267900;,
-0.750700; 0.470500; 0.352000;,
-0.807200; 0.470500; 0.352000;,
-0.750700; 0.470500; 0.352000;,
-0.807200; 0.470500; 0.267900;,
-0.807200; 0.426800; 0.267900;,
-0.807200; 0.426800; 0.352000;,
-0.807200; 0.470500; 0.352000;,
-0.807200; 0.426800; 0.267900;,
-0.807200; 0.470500; 0.352000;,
-0.807200; 0.470500; 0.267900;,
-0.857100; 0.143800; 0.632800;,
-0.733800; 0.143800; 0.632800;,
-0.733800; 0.345500; 0.632800;,
-0.857100; 0.143800; 0.632800;,
-0.733800; 0.345500; 0.632800;,
-0.857100; 0.345500; 0.632800;,
-0.857100; 0.143800; 0.272600;,
-0.857100; 0.143800; 0.632800;,
-0.857100; 0.345500; 0.632800;,
-0.857100; 0.143800; 0.272600;,
-0.857100; 0.345500; 0.632800;,
-0.857100; 0.345500; 0.272600;,
-0.733800; 0.143800; 0.632800;,
-0.857100; 0.143800; 0.272600;,
-0.733800; 0.143800; 0.272600;,
-0.857100; 0.143800; 0.272600;,
-0.733800; 0.143800; 0.632800;,
-0.857100; 0.143800; 0.632800;,
-0.733800; 0.345500; 0.272600;,
-0.857100; 0.345500; 0.272600;,
-0.733800; 0.345500; 0.632800;,
-0.857100; 0.345500; 0.632800;,
-0.733800; 0.345500; 0.632800;,
-0.857100; 0.345500; 0.272600;,
-0.707500; -1.219900; 0.652800;,
-0.707500; 1.227400; 0.654400;,
-0.707500; 1.226800; 0.257900;,
-0.707500; 1.226800; 0.257900;,
-0.707500; -1.220100; 0.257700;,
-0.707500; -1.219900; 0.652800;,
-0.707000; 0.660400; 0.262400;,
-0.707000; -0.656300; 0.129800;,
-0.707000; -0.656300; 0.260500;,
-0.707000; -0.656300; 0.129800;,
-0.707000; 0.660400; 0.262400;,
-0.707000; 0.660400; 0.129800;,
-0.713000; -0.607600; 0.623300;,
-0.713000; -0.239400; 0.623300;,
-0.713000; -0.239400; 0.271000;,
-0.713000; -0.239400; 0.271000;,
-0.713000; -0.607600; 0.271000;,
-0.713000; -0.607600; 0.623300;,
-0.815500; 0.074300; 0.632800;,
-0.775400; 0.074300; 0.632800;,
-0.775400; 0.143700; 0.632800;,
-0.815500; 0.074300; 0.632800;,
-0.775400; 0.143700; 0.632800;,
-0.815500; 0.143700; 0.632800;,
-0.815500; 0.074300; 0.493500;,
-0.815500; 0.074300; 0.632800;,
-0.815500; 0.143700; 0.632800;,
-0.815500; 0.074300; 0.493500;,
-0.815500; 0.143700; 0.632800;,
-0.815500; 0.143700; 0.493500;,
-0.775400; 0.074300; 0.632800;,
-0.815500; 0.074300; 0.493500;,
-0.775400; 0.074300; 0.493500;,
-0.815500; 0.074300; 0.493500;,
-0.775400; 0.074300; 0.632800;,
-0.815500; 0.074300; 0.632800;,
-0.815300; 0.074200; 0.493700;,
-0.815300; 0.143800; 0.493700;,
-0.856900; 0.143800; 0.493700;,
-0.815300; 0.074200; 0.272500;,
-0.815300; 0.074200; 0.493700;,
-0.856900; 0.143800; 0.493700;,
-0.815300; 0.074200; 0.272500;,
-0.856900; 0.143800; 0.493700;,
-0.856900; 0.143800; 0.272500;,
-0.707400; -0.237100; 0.627900;,
-0.744200; -0.030500; 0.628600;,
-0.744200; -0.030500; 0.270200;,
-0.744200; -0.030500; 0.270200;,
-0.707400; -0.237100; 0.270800;,
-0.707400; -0.237100; 0.627900;,
-0.707400; 0.176100; 0.627900;,
-0.744200; -0.030500; 0.270200;,
-0.744200; -0.030500; 0.628600;,
-0.744200; -0.030500; 0.270200;,
-0.707400; 0.176100; 0.627900;,
-0.707400; 0.176100; 0.270800;;
134;
3; 0, 1, 2;,
3; 3, 4, 5;,
3; 6, 7, 8;,
3; 9, 10, 11;,
3; 12, 13, 14;,
3; 15, 16, 17;,
3; 18, 19, 20;,
3; 21, 22, 23;,
3; 24, 25, 26;,
3; 27, 28, 29;,
3; 30, 31, 32;,
3; 33, 34, 35;,
3; 36, 37, 38;,
3; 39, 40, 41;,
3; 42, 43, 44;,
3; 45, 46, 47;,
3; 48, 49, 50;,
3; 51, 52, 53;,
3; 54, 55, 56;,
3; 57, 58, 59;,
3; 60, 61, 62;,
3; 63, 64, 65;,
3; 66, 67, 68;,
3; 69, 70, 71;,
3; 72, 73, 74;,
3; 75, 76, 77;,
3; 78, 79, 80;,
3; 81, 82, 83;,
3; 84, 85, 86;,
3; 87, 88, 89;,
3; 90, 91, 92;,
3; 93, 94, 95;,
3; 96, 97, 98;,
3; 99, 100, 101;,
3; 102, 103, 104;,
3; 105, 106, 107;,
3; 108, 109, 110;,
3; 111, 112, 113;,
3; 114, 115, 116;,
3; 117, 118, 119;,
3; 120, 121, 122;,
3; 123, 124, 125;,
3; 126, 127, 128;,
3; 129, 130, 131;,
3; 132, 133, 134;,
3; 135, 136, 137;,
3; 138, 139, 140;,
3; 141, 142, 143;,
3; 144, 145, 146;,
3; 147, 148, 149;,
3; 150, 151, 152;,
3; 153, 154, 155;,
3; 156, 157, 158;,
3; 159, 160, 161;,
3; 162, 163, 164;,
3; 165, 166, 167;,
3; 168, 169, 170;,
3; 171, 172, 173;,
3; 174, 175, 176;,
3; 177, 178, 179;,
3; 180, 181, 182;,
3; 183, 184, 185;,
3; 186, 187, 188;,
3; 189, 190, 191;,
3; 192, 193, 194;,
3; 195, 196, 197;,
3; 198, 199, 200;,
3; 201, 202, 203;,
3; 204, 205, 206;,
3; 207, 208, 209;,
3; 210, 211, 212;,
3; 213, 214, 215;,
3; 216, 217, 218;,
3; 219, 220, 221;,
3; 222, 223, 224;,
3; 225, 226, 227;,
3; 228, 229, 230;,
3; 231, 232, 233;,
3; 234, 235, 236;,
3; 237, 238, 239;,
3; 240, 241, 242;,
3; 243, 244, 245;,
3; 246, 247, 248;,
3; 249, 250, 251;,
3; 252, 253, 254;,
3; 255, 256, 257;,
3; 258, 259, 260;,
3; 261, 262, 263;,
3; 264, 265, 266;,
3; 267, 268, 269;,
3; 270, 271, 272;,
3; 273, 274, 275;,
3; 276, 277, 278;,
3; 279, 280, 281;,
3; 282, 283, 284;,
3; 285, 286, 287;,
3; 288, 289, 290;,
3; 291, 292, 293;,
3; 294, 295, 296;,
3; 297, 298, 299;,
3; 300, 301, 302;,
3; 303, 304, 305;,
3; 306, 307, 308;,
3; 309, 310, 311;,
3; 312, 313, 314;,
3; 315, 316, 317;,
3; 318, 319, 320;,
3; 321, 322, 323;,
3; 324, 325, 326;,
3; 327, 328, 329;,
3; 330, 331, 332;,
3; 333, 334, 335;,
3; 336, 337, 338;,
3; 339, 340, 341;,
3; 342, 343, 344;,
3; 345, 346, 347;,
3; 348, 349, 350;,
3; 351, 352, 353;,
3; 354, 355, 356;,
3; 357, 358, 359;,
3; 360, 361, 362;,
3; 363, 364, 365;,
3; 366, 367, 368;,
3; 369, 370, 371;,
3; 372, 373, 374;,
3; 375, 376, 377;,
3; 378, 379, 380;,
3; 381, 382, 383;,
3; 384, 385, 386;,
3; 387, 388, 389;,
3; 390, 391, 392;,
3; 393, 394, 395;,
3; 396, 397, 398;,
3; 399, 400, 401;;
  MeshMaterialList {
    2;
    134;
    1,
    1,
    1,
    1,
    1,
    1,
    1,
    1,
    1,
    1,
    1,
    1,
    1,
    1,
    1,
    1,
    1,
    1,
    1,
    1,
    1,
    1,
    1,
    1,
    1,
    1,
    1,
    1,
    1,
    1,
    1,
    1,
    1,
    1,
    1,
    1,
    1,
    1,
    1,
    1,
    1,
    1,
    1,
    1,
    1,
    1,
    1,
    1,
    1,
    1,
    1,
    1,
    1,
    1,
    1,
    1,
    1,
    1,
    1,
    1,
    1,
    1,
    1,
    1,
    1,
    1,
    1,
    1,
    1,
    1,
    1,
    1,
    1,
    1,
    1,
    1,
    1,
    1,
    1,
    1,
    1,
    1,
    1,
    1,
    1,
    1,
    1,
    1,
    1,
    1,
    1,
    1,
    1,
    1,
    1,
    1,
    1,
    1,
    1,
    1,
    1,
    1,
    1,
    1,
    1,
    1,
    1,
    1,
    1,
    1,
    1,
    1,
    1,
    1,
    1,
    1,
    1,
    1,
    1,
    1,
    1,
    1,
    1,
    1,
    1,
    1,
    1,
    1,
    1,
    1,
    1,
    1,
    1,
    1;;
  Material Material_001 {
    0.470588; 0.470588; 0.470588;1.0;;
    0.500000;
    1.000000; 1.000000; 1.000000;;
    0.0; 0.0; 0.0;;
  }  //End of Material
  Material Mat1 {
    1.0; 1.0; 1.0; 1.0;;
    1.0;
    1.0; 1.0; 1.0;;
    0.0; 0.0; 0.0;;
  TextureFilename {    "03___DEF.PNG";  }
  }  // End of Material
    }  //End of MeshMaterialList
  MeshNormals {
402;
    -0.000000; -0.000000; -1.000000;,
    -0.000000; -0.000000; -1.000000;,
    -0.000000; -0.000000; -1.000000;,
    -0.000000; -0.000000; -1.000000;,
    -0.000000; -0.000000; -1.000000;,
    -0.000000; -0.000000; -1.000000;,
    -0.997864; -0.000000; -0.065249;,
    -0.997864; -0.000000; -0.065249;,
    -0.997864; -0.000000; -0.065249;,
    -0.997864; -0.000000; -0.065249;,
    -0.997864; -0.000000; -0.065249;,
    -0.997864; -0.000000; -0.065249;,
    -0.000000; 0.990844; -0.134892;,
    -0.000000; 0.990844; -0.134892;,
    -0.000000; 0.990844; -0.134892;,
    -0.000000; 0.990844; -0.134892;,
    -0.000000; 0.990844; -0.134892;,
    -0.000000; 0.990844; -0.134892;,
    -0.000000; -0.990722; -0.135655;,
    -0.000000; -0.990722; -0.135655;,
    -0.000000; -0.990722; -0.135655;,
    -0.000000; -0.990722; -0.135655;,
    -0.000000; -0.990722; -0.135655;,
    -0.000000; -0.990722; -0.135655;,
    -0.000000; -0.835780; 0.549058;,
    -0.000000; -0.835780; 0.549058;,
    -0.000000; -0.835780; 0.549058;,
    -0.000000; -0.835780; 0.549058;,
    -0.000000; -0.835780; 0.549058;,
    -0.000000; -0.835780; 0.549058;,
    -0.828272; -0.000000; 0.560289;,
    -0.828272; -0.000000; 0.560289;,
    -0.828272; -0.000000; 0.560289;,
    -0.828272; -0.000000; 0.560289;,
    -0.828272; -0.000000; 0.560289;,
    -0.828272; -0.000000; 0.560289;,
    -0.000000; 0.832179; 0.554460;,
    -0.000000; 0.832179; 0.554460;,
    -0.000000; 0.832179; 0.554460;,
    -0.000000; 0.832179; 0.554460;,
    -0.000000; 0.832179; 0.554460;,
    -0.000000; 0.832179; 0.554460;,
    -0.000000; -0.000000; -1.000000;,
    -0.000000; -0.000000; -1.000000;,
    -0.000000; -0.000000; -1.000000;,
    -0.000000; -0.000000; -1.000000;,
    -0.000000; -0.000000; -1.000000;,
    -0.000000; -0.000000; -1.000000;,
    -0.997833; -0.000000; -0.065706;,
    -0.997833; -0.000000; -0.065706;,
    -0.997833; -0.000000; -0.065706;,
    -0.997833; -0.000000; -0.065706;,
    -0.997833; -0.000000; -0.065706;,
    -0.997833; -0.000000; -0.065706;,
    0.001587; -0.999969; 0.000092;,
    0.001587; -0.999969; 0.000092;,
    0.001587; -0.999969; 0.000092;,
    0.001587; -0.999969; 0.000092;,
    0.001587; -0.999969; 0.000092;,
    0.001587; -0.999969; 0.000092;,
    -1.000000; -0.000000; -0.000000;,
    -1.000000; -0.000000; -0.000000;,
    -1.000000; -0.000000; -0.000000;,
    -1.000000; -0.000000; -0.000000;,
    -1.000000; -0.000000; -0.000000;,
    -1.000000; -0.000000; -0.000000;,
    -0.997833; -0.000000; -0.065706;,
    -0.997833; -0.000000; -0.065706;,
    -0.997833; -0.000000; -0.065706;,
    -0.997833; -0.000000; -0.065706;,
    -0.997833; -0.000000; -0.065706;,
    -0.997833; -0.000000; -0.065706;,
    0.001587; 0.999969; 0.000092;,
    0.001587; 0.999969; 0.000092;,
    0.001587; 0.999969; 0.000092;,
    0.001587; 0.999969; 0.000092;,
    0.001587; 0.999969; 0.000092;,
    0.001587; 0.999969; 0.000092;,
    -1.000000; -0.000000; -0.000000;,
    -1.000000; -0.000000; -0.000000;,
    -1.000000; -0.000000; -0.000000;,
    -1.000000; -0.000000; -0.000000;,
    -1.000000; -0.000000; -0.000000;,
    -1.000000; -0.000000; -0.000000;,
    -0.000000; 1.000000; -0.000000;,
    -0.000000; 1.000000; -0.000000;,
    -0.000000; 1.000000; -0.000000;,
    -0.000000; 1.000000; -0.000000;,
    -0.000000; 1.000000; -0.000000;,
    -0.000000; 1.000000; -0.000000;,
    -0.000000; -1.000000; -0.000000;,
    -0.000000; -1.000000; -0.000000;,
    -0.000000; -1.000000; -0.000000;,
    -0.000000; -1.000000; -0.000000;,
    -0.000000; -1.000000; -0.000000;,
    -0.000000; -1.000000; -0.000000;,
    -1.000000; -0.000000; -0.000000;,
    -1.000000; -0.000000; -0.000000;,
    -1.000000; -0.000000; -0.000000;,
    -1.000000; -0.000000; -0.000000;,
    -1.000000; -0.000000; -0.000000;,
    -1.000000; -0.000000; -0.000000;,
    -0.000000; 1.000000; -0.000000;,
    -0.000000; 1.000000; -0.000000;,
    -0.000000; 1.000000; -0.000000;,
    -0.000000; 1.000000; -0.000000;,
    -0.000000; 1.000000; -0.000000;,
    -0.000000; 1.000000; -0.000000;,
    -0.000000; -1.000000; -0.000000;,
    -0.000000; -1.000000; -0.000000;,
    -0.000000; -1.000000; -0.000000;,
    -0.000000; -1.000000; -0.000000;,
    -0.000000; -1.000000; -0.000000;,
    -0.000000; -1.000000; -0.000000;,
    -1.000000; -0.000000; -0.000000;,
    -1.000000; -0.000000; -0.000000;,
    -1.000000; -0.000000; -0.000000;,
    -1.000000; -0.000000; -0.000000;,
    -1.000000; -0.000000; -0.000000;,
    -1.000000; -0.000000; -0.000000;,
    -0.000000; -0.000000; -1.000000;,
    -0.000000; -0.000000; -1.000000;,
    -0.000000; -0.000000; -1.000000;,
    -0.000000; -0.000000; -1.000000;,
    -0.000000; -0.000000; -1.000000;,
    -0.000000; -0.000000; -1.000000;,
    -1.000000; -0.000000; -0.000000;,
    -1.000000; -0.000000; -0.000000;,
    -1.000000; -0.000000; -0.000000;,
    -1.000000; -0.000000; -0.000000;,
    -1.000000; -0.000000; -0.000000;,
    -1.000000; -0.000000; -0.000000;,
    -0.000000; 1.000000; -0.000000;,
    -0.000000; 1.000000; -0.000000;,
    -0.000000; 1.000000; -0.000000;,
    -0.000000; 1.000000; -0.000000;,
    -0.000000; 1.000000; -0.000000;,
    -0.000000; 1.000000; -0.000000;,
    -0.000000; -1.000000; -0.000000;,
    -0.000000; -1.000000; -0.000000;,
    -0.000000; -1.000000; -0.000000;,
    -0.000000; -1.000000; -0.000000;,
    -0.000000; -1.000000; -0.000000;,
    -0.000000; -1.000000; -0.000000;,
    -1.000000; -0.000000; -0.000000;,
    -1.000000; -0.000000; -0.000000;,
    -1.000000; -0.000000; -0.000000;,
    -1.000000; -0.000000; -0.000000;,
    -1.000000; -0.000000; -0.000000;,
    -1.000000; -0.000000; -0.000000;,
    -1.000000; -0.000000; -0.000000;,
    -1.000000; -0.000000; -0.000000;,
    -1.000000; -0.000000; -0.000000;,
    -1.000000; -0.000000; -0.000000;,
    -1.000000; -0.000000; -0.000000;,
    -1.000000; -0.000000; -0.000000;,
    -1.000000; -0.000000; -0.000000;,
    -1.000000; -0.000000; -0.000000;,
    -1.000000; -0.000000; -0.000000;,
    -1.000000; -0.000000; -0.000000;,
    -1.000000; -0.000000; -0.000000;,
    -1.000000; -0.000000; -0.000000;,
    -0.000000; -0.000000; -1.000000;,
    -0.000000; -0.000000; -1.000000;,
    -0.000000; -0.000000; -1.000000;,
    -0.000000; -0.000000; -1.000000;,
    -0.000000; -0.000000; -1.000000;,
    -0.000000; -0.000000; -1.000000;,
    -1.000000; -0.000000; -0.000000;,
    -1.000000; -0.000000; -0.000000;,
    -1.000000; -0.000000; -0.000000;,
    -1.000000; -0.000000; -0.000000;,
    -1.000000; -0.000000; -0.000000;,
    -1.000000; -0.000000; -0.000000;,
    -0.000000; 1.000000; -0.000000;,
    -0.000000; 1.000000; -0.000000;,
    -0.000000; 1.000000; -0.000000;,
    -0.000000; 1.000000; -0.000000;,
    -0.000000; 1.000000; -0.000000;,
    -0.000000; 1.000000; -0.000000;,
    -0.000000; -0.000000; -1.000000;,
    -0.000000; -0.000000; -1.000000;,
    -0.000000; -0.000000; -1.000000;,
    -0.858211; 0.513260; -0.000000;,
    -0.858211; 0.513260; -0.000000;,
    -0.858211; 0.513260; -0.000000;,
    -0.858211; 0.513260; -0.000000;,
    -0.858211; 0.513260; -0.000000;,
    -0.858211; 0.513260; -0.000000;,
    -0.984497; 0.175329; -0.000000;,
    -0.984497; 0.175329; -0.000000;,
    -0.984497; 0.175329; -0.000000;,
    -0.984497; 0.175298; -0.000000;,
    -0.984497; 0.175298; -0.000000;,
    -0.984497; 0.175298; -0.000000;,
    -0.984497; -0.175329; -0.000000;,
    -0.984497; -0.175329; -0.000000;,
    -0.984497; -0.175329; -0.000000;,
    -0.984497; -0.175298; -0.000000;,
    -0.984497; -0.175298; -0.000000;,
    -0.984497; -0.175298; -0.000000;,
    -0.000000; -0.000000; -1.000000;,
    -0.000000; -0.000000; -1.000000;,
    -0.000000; -0.000000; -1.000000;,
    -0.000000; -0.000000; -1.000000;,
    -0.000000; -0.000000; -1.000000;,
    -0.000000; -0.000000; -1.000000;,
    0.997864; -0.000000; -0.065249;,
    0.997864; -0.000000; -0.065249;,
    0.997864; -0.000000; -0.065249;,
    0.997864; -0.000000; -0.065249;,
    0.997864; -0.000000; -0.065249;,
    0.997864; -0.000000; -0.065249;,
    -0.000000; 0.990844; -0.134892;,
    -0.000000; 0.990844; -0.134892;,
    -0.000000; 0.990844; -0.134892;,
    -0.000000; 0.990844; -0.134892;,
    -0.000000; 0.990844; -0.134892;,
    -0.000000; 0.990844; -0.134892;,
    -0.000000; -0.990722; -0.135655;,
    -0.000000; -0.990722; -0.135655;,
    -0.000000; -0.990722; -0.135655;,
    -0.000000; -0.990722; -0.135655;,
    -0.000000; -0.990722; -0.135655;,
    -0.000000; -0.990722; -0.135655;,
    -0.000000; -0.835780; 0.549058;,
    -0.000000; -0.835780; 0.549058;,
    -0.000000; -0.835780; 0.549058;,
    -0.000000; -0.835780; 0.549058;,
    -0.000000; -0.835780; 0.549058;,
    -0.000000; -0.835780; 0.549058;,
    0.828272; -0.000000; 0.560289;,
    0.828272; -0.000000; 0.560289;,
    0.828272; -0.000000; 0.560289;,
    0.828272; -0.000000; 0.560289;,
    0.828272; -0.000000; 0.560289;,
    0.828272; -0.000000; 0.560289;,
    -0.000000; 0.832179; 0.554460;,
    -0.000000; 0.832179; 0.554460;,
    -0.000000; 0.832179; 0.554460;,
    -0.000000; 0.832179; 0.554460;,
    -0.000000; 0.832179; 0.554460;,
    -0.000000; 0.832179; 0.554460;,
    -0.000000; -0.000000; -1.000000;,
    -0.000000; -0.000000; -1.000000;,
    -0.000000; -0.000000; -1.000000;,
    -0.000000; -0.000000; -1.000000;,
    -0.000000; -0.000000; -1.000000;,
    -0.000000; -0.000000; -1.000000;,
    0.997833; -0.000000; -0.065706;,
    0.997833; -0.000000; -0.065706;,
    0.997833; -0.000000; -0.065706;,
    0.997833; -0.000000; -0.065706;,
    0.997833; -0.000000; -0.065706;,
    0.997833; -0.000000; -0.065706;,
    -0.001587; -0.999969; 0.000092;,
    -0.001587; -0.999969; 0.000092;,
    -0.001587; -0.999969; 0.000092;,
    -0.001587; -0.999969; 0.000092;,
    -0.001587; -0.999969; 0.000092;,
    -0.001587; -0.999969; 0.000092;,
    1.000000; -0.000000; -0.000000;,
    1.000000; -0.000000; -0.000000;,
    1.000000; -0.000000; -0.000000;,
    1.000000; -0.000000; -0.000000;,
    1.000000; -0.000000; -0.000000;,
    1.000000; -0.000000; -0.000000;,
    0.997833; -0.000000; -0.065706;,
    0.997833; -0.000000; -0.065706;,
    0.997833; -0.000000; -0.065706;,
    0.997833; -0.000000; -0.065706;,
    0.997833; -0.000000; -0.065706;,
    0.997833; -0.000000; -0.065706;,
    -0.001587; 0.999969; 0.000092;,
    -0.001587; 0.999969; 0.000092;,
    -0.001587; 0.999969; 0.000092;,
    -0.001587; 0.999969; 0.000092;,
    -0.001587; 0.999969; 0.000092;,
    -0.001587; 0.999969; 0.000092;,
    1.000000; -0.000000; -0.000000;,
    1.000000; -0.000000; -0.000000;,
    1.000000; -0.000000; -0.000000;,
    1.000000; -0.000000; -0.000000;,
    1.000000; -0.000000; -0.000000;,
    1.000000; -0.000000; -0.000000;,
    -0.000000; 1.000000; -0.000000;,
    -0.000000; 1.000000; -0.000000;,
    -0.000000; 1.000000; -0.000000;,
    -0.000000; 1.000000; -0.000000;,
    -0.000000; 1.000000; -0.000000;,
    -0.000000; 1.000000; -0.000000;,
    -0.000000; -1.000000; -0.000000;,
    -0.000000; -1.000000; -0.000000;,
    -0.000000; -1.000000; -0.000000;,
    -0.000000; -1.000000; -0.000000;,
    -0.000000; -1.000000; -0.000000;,
    -0.000000; -1.000000; -0.000000;,
    1.000000; -0.000000; -0.000000;,
    1.000000; -0.000000; -0.000000;,
    1.000000; -0.000000; -0.000000;,
    1.000000; -0.000000; -0.000000;,
    1.000000; -0.000000; -0.000000;,
    1.000000; -0.000000; -0.000000;,
    -0.000000; 1.000000; -0.000000;,
    -0.000000; 1.000000; -0.000000;,
    -0.000000; 1.000000; -0.000000;,
    -0.000000; 1.000000; -0.000000;,
    -0.000000; 1.000000; -0.000000;,
    -0.000000; 1.000000; -0.000000;,
    -0.000000; -1.000000; -0.000000;,
    -0.000000; -1.000000; -0.000000;,
    -0.000000; -1.000000; -0.000000;,
    -0.000000; -1.000000; -0.000000;,
    -0.000000; -1.000000; -0.000000;,
    -0.000000; -1.000000; -0.000000;,
    1.000000; -0.000000; -0.000000;,
    1.000000; -0.000000; -0.000000;,
    1.000000; -0.000000; -0.000000;,
    1.000000; -0.000000; -0.000000;,
    1.000000; -0.000000; -0.000000;,
    1.000000; -0.000000; -0.000000;,
    -0.000000; -0.000000; -1.000000;,
    -0.000000; -0.000000; -1.000000;,
    -0.000000; -0.000000; -1.000000;,
    -0.000000; -0.000000; -1.000000;,
    -0.000000; -0.000000; -1.000000;,
    -0.000000; -0.000000; -1.000000;,
    1.000000; -0.000000; -0.000000;,
    1.000000; -0.000000; -0.000000;,
    1.000000; -0.000000; -0.000000;,
    1.000000; -0.000000; -0.000000;,
    1.000000; -0.000000; -0.000000;,
    1.000000; -0.000000; -0.000000;,
    -0.000000; 1.000000; -0.000000;,
    -0.000000; 1.000000; -0.000000;,
    -0.000000; 1.000000; -0.000000;,
    -0.000000; 1.000000; -0.000000;,
    -0.000000; 1.000000; -0.000000;,
    -0.000000; 1.000000; -0.000000;,
    -0.000000; -1.000000; -0.000000;,
    -0.000000; -1.000000; -0.000000;,
    -0.000000; -1.000000; -0.000000;,
    -0.000000; -1.000000; -0.000000;,
    -0.000000; -1.000000; -0.000000;,
    -0.000000; -1.000000; -0.000000;,
    1.000000; -0.000000; -0.000000;,
    1.000000; -0.000000; -0.000000;,
    1.000000; -0.000000; -0.000000;,
    1.000000; -0.000000; -0.000000;,
    1.000000; -0.000000; -0.000000;,
    1.000000; -0.000000; -0.000000;,
    1.000000; -0.000000; -0.000000;,
    1.000000; -0.000000; -0.000000;,
    1.000000; -0.000000; -0.000000;,
    1.000000; -0.000000; -0.000000;,
    1.000000; -0.000000; -0.000000;,
    1.000000; -0.000000; -0.000000;,
    1.000000; -0.000000; -0.000000;,
    1.000000; -0.000000; -0.000000;,
    1.000000; -0.000000; -0.000000;,
    1.000000; -0.000000; -0.000000;,
    1.000000; -0.000000; -0.000000;,
    1.000000; -0.000000; -0.000000;,
    -0.000000; -0.000000; -1.000000;,
    -0.000000; -0.000000; -1.000000;,
    -0.000000; -0.000000; -1.000000;,
    -0.000000; -0.000000; -1.000000;,
    -0.000000; -0.000000; -1.000000;,
    -0.000000; -0.000000; -1.000000;,
    1.000000; -0.000000; -0.000000;,
    1.000000; -0.000000; -0.000000;,
    1.000000; -0.000000; -0.000000;,
    1.000000; -0.000000; -0.000000;,
    1.000000; -0.000000; -0.000000;,
    1.000000; -0.000000; -0.000000;,
    -0.000000; 1.000000; -0.000000;,
    -0.000000; 1.000000; -0.000000;,
    -0.000000; 1.000000; -0.000000;,
    -0.000000; 1.000000; -0.000000;,
    -0.000000; 1.000000; -0.000000;,
    -0.000000; 1.000000; -0.000000;,
    -0.000000; -0.000000; -1.000000;,
    -0.000000; -0.000000; -1.000000;,
    -0.000000; -0.000000; -1.000000;,
    0.858211; 0.513260; -0.000000;,
    0.858211; 0.513260; -0.000000;,
    0.858211; 0.513260; -0.000000;,
    0.858211; 0.513260; -0.000000;,
    0.858211; 0.513260; -0.000000;,
    0.858211; 0.513260; -0.000000;,
    0.984497; 0.175329; -0.000000;,
    0.984497; 0.175329; -0.000000;,
    0.984497; 0.175329; -0.000000;,
    0.984497; 0.175298; -0.000000;,
    0.984497; 0.175298; -0.000000;,
    0.984497; 0.175298; -0.000000;,
    0.984497; -0.175329; -0.000000;,
    0.984497; -0.175329; -0.000000;,
    0.984497; -0.175329; -0.000000;,
    0.984497; -0.175298; -0.000000;,
    0.984497; -0.175298; -0.000000;,
    0.984497; -0.175298; -0.000000;;
134;
3; 0, 1, 2;,
3; 3, 4, 5;,
3; 6, 7, 8;,
3; 9, 10, 11;,
3; 12, 13, 14;,
3; 15, 16, 17;,
3; 18, 19, 20;,
3; 21, 22, 23;,
3; 24, 25, 26;,
3; 27, 28, 29;,
3; 30, 31, 32;,
3; 33, 34, 35;,
3; 36, 37, 38;,
3; 39, 40, 41;,
3; 42, 43, 44;,
3; 45, 46, 47;,
3; 48, 49, 50;,
3; 51, 52, 53;,
3; 54, 55, 56;,
3; 57, 58, 59;,
3; 60, 61, 62;,
3; 63, 64, 65;,
3; 66, 67, 68;,
3; 69, 70, 71;,
3; 72, 73, 74;,
3; 75, 76, 77;,
3; 78, 79, 80;,
3; 81, 82, 83;,
3; 84, 85, 86;,
3; 87, 88, 89;,
3; 90, 91, 92;,
3; 93, 94, 95;,
3; 96, 97, 98;,
3; 99, 100, 101;,
3; 102, 103, 104;,
3; 105, 106, 107;,
3; 108, 109, 110;,
3; 111, 112, 113;,
3; 114, 115, 116;,
3; 117, 118, 119;,
3; 120, 121, 122;,
3; 123, 124, 125;,
3; 126, 127, 128;,
3; 129, 130, 131;,
3; 132, 133, 134;,
3; 135, 136, 137;,
3; 138, 139, 140;,
3; 141, 142, 143;,
3; 144, 145, 146;,
3; 147, 148, 149;,
3; 150, 151, 152;,
3; 153, 154, 155;,
3; 156, 157, 158;,
3; 159, 160, 161;,
3; 162, 163, 164;,
3; 165, 166, 167;,
3; 168, 169, 170;,
3; 171, 172, 173;,
3; 174, 175, 176;,
3; 177, 178, 179;,
3; 180, 181, 182;,
3; 183, 184, 185;,
3; 186, 187, 188;,
3; 189, 190, 191;,
3; 192, 193, 194;,
3; 195, 196, 197;,
3; 198, 199, 200;,
3; 201, 202, 203;,
3; 204, 205, 206;,
3; 207, 208, 209;,
3; 210, 211, 212;,
3; 213, 214, 215;,
3; 216, 217, 218;,
3; 219, 220, 221;,
3; 222, 223, 224;,
3; 225, 226, 227;,
3; 228, 229, 230;,
3; 231, 232, 233;,
3; 234, 235, 236;,
3; 237, 238, 239;,
3; 240, 241, 242;,
3; 243, 244, 245;,
3; 246, 247, 248;,
3; 249, 250, 251;,
3; 252, 253, 254;,
3; 255, 256, 257;,
3; 258, 259, 260;,
3; 261, 262, 263;,
3; 264, 265, 266;,
3; 267, 268, 269;,
3; 270, 271, 272;,
3; 273, 274, 275;,
3; 276, 277, 278;,
3; 279, 280, 281;,
3; 282, 283, 284;,
3; 285, 286, 287;,
3; 288, 289, 290;,
3; 291, 292, 293;,
3; 294, 295, 296;,
3; 297, 298, 299;,
3; 300, 301, 302;,
3; 303, 304, 305;,
3; 306, 307, 308;,
3; 309, 310, 311;,
3; 312, 313, 314;,
3; 315, 316, 317;,
3; 318, 319, 320;,
3; 321, 322, 323;,
3; 324, 325, 326;,
3; 327, 328, 329;,
3; 330, 331, 332;,
3; 333, 334, 335;,
3; 336, 337, 338;,
3; 339, 340, 341;,
3; 342, 343, 344;,
3; 345, 346, 347;,
3; 348, 349, 350;,
3; 351, 352, 353;,
3; 354, 355, 356;,
3; 357, 358, 359;,
3; 360, 361, 362;,
3; 363, 364, 365;,
3; 366, 367, 368;,
3; 369, 370, 371;,
3; 372, 373, 374;,
3; 375, 376, 377;,
3; 378, 379, 380;,
3; 381, 382, 383;,
3; 384, 385, 386;,
3; 387, 388, 389;,
3; 390, 391, 392;,
3; 393, 394, 395;,
3; 396, 397, 398;,
3; 399, 400, 401;;
}  //End of MeshNormals
MeshTextureCoords {
402;
0.175570;0.820635;,
0.679678;0.843301;,
0.175570;0.843301;,
0.175570;0.820635;,
0.679678;0.820635;,
0.679678;0.843301;,
0.087268;0.929290;,
0.737029;0.825859;,
0.100546;0.825859;,
0.087268;0.929290;,
0.752002;0.929290;,
0.737029;0.825859;,
0.467143;0.827796;,
0.467143;0.933463;,
0.375391;0.933463;,
0.375391;0.933463;,
0.375391;0.827796;,
0.467143;0.827796;,
0.467143;0.933463;,
0.467143;0.827796;,
0.375391;0.933463;,
0.375391;0.827796;,
0.375391;0.933463;,
0.467143;0.827796;,
0.454818;0.942170;,
0.375391;0.933463;,
0.387975;0.942170;,
0.375391;0.933463;,
0.454818;0.942170;,
0.467143;0.933463;,
0.100389;0.944767;,
0.737588;0.945079;,
0.752002;0.929290;,
0.752002;0.929290;,
0.087268;0.929290;,
0.100389;0.944767;,
0.454818;0.942170;,
0.387975;0.942170;,
0.375391;0.933463;,
0.375391;0.933463;,
0.467143;0.933463;,
0.454818;0.942170;,
0.399970;0.638957;,
0.399850;0.590921;,
0.282078;0.581410;,
0.282078;0.581410;,
0.279354;0.628874;,
0.399970;0.638957;,
0.807833;0.883263;,
0.807833;0.845538;,
0.677114;0.845538;,
0.677114;0.883263;,
0.807833;0.883263;,
0.677114;0.845538;,
0.808091;0.881122;,
0.808212;0.845625;,
0.761559;0.845625;,
0.761439;0.881122;,
0.808091;0.881122;,
0.761559;0.845625;,
0.110536;0.762649;,
0.048777;0.901507;,
0.049502;0.762827;,
0.110536;0.762649;,
0.155941;0.849531;,
0.048777;0.901507;,
0.807833;0.883263;,
0.677114;0.845538;,
0.807833;0.845538;,
0.677114;0.883263;,
0.677114;0.845538;,
0.807833;0.883263;,
0.808091;0.881122;,
0.761559;0.845625;,
0.808212;0.845625;,
0.761439;0.881122;,
0.761559;0.845625;,
0.808091;0.881122;,
0.110536;0.762649;,
0.049502;0.762827;,
0.048777;0.901507;,
0.110536;0.762649;,
0.048777;0.901507;,
0.155941;0.849531;,
0.096804;0.661617;,
0.096804;0.741906;,
0.059782;0.741906;,
0.059782;0.741906;,
0.059782;0.661617;,
0.096804;0.661617;,
0.096804;0.741906;,
0.096804;0.661617;,
0.059782;0.741906;,
0.059782;0.661617;,
0.059782;0.741906;,
0.096804;0.661617;,
0.060316;0.741906;,
0.096470;0.661617;,
0.060316;0.661617;,
0.060316;0.741906;,
0.096470;0.741906;,
0.096470;0.661617;,
0.096804;0.661617;,
0.096804;0.741906;,
0.059782;0.741906;,
0.059782;0.741906;,
0.059782;0.661617;,
0.096804;0.661617;,
0.096804;0.741906;,
0.096804;0.661617;,
0.059782;0.741906;,
0.059782;0.661617;,
0.059782;0.741906;,
0.096804;0.661617;,
0.060316;0.741906;,
0.096470;0.661617;,
0.060316;0.661617;,
0.060316;0.741906;,
0.096470;0.741906;,
0.096470;0.661617;,
0.662012;0.594943;,
0.753691;0.594943;,
0.753691;0.594943;,
0.662012;0.594943;,
0.662012;0.594943;,
0.753691;0.594943;,
0.662156;0.699309;,
0.753275;0.594943;,
0.662156;0.594943;,
0.662156;0.699309;,
0.753275;0.699309;,
0.753275;0.594943;,
0.753691;0.594943;,
0.753691;0.699309;,
0.662012;0.699309;,
0.662012;0.699309;,
0.662012;0.594943;,
0.753691;0.594943;,
0.753691;0.699309;,
0.753691;0.594943;,
0.662012;0.699309;,
0.662012;0.594943;,
0.662012;0.699309;,
0.753691;0.594943;,
0.761696;0.531485;,
0.816467;0.596589;,
0.815190;0.531924;,
0.816467;0.596589;,
0.761696;0.531485;,
0.763353;0.594714;,
0.403509;0.759079;,
0.143915;0.760998;,
0.143915;0.810324;,
0.143915;0.810324;,
0.403509;0.810324;,
0.403509;0.759079;,
0.093341;0.542425;,
0.266962;0.714255;,
0.266962;0.542425;,
0.266962;0.714255;,
0.093341;0.542425;,
0.093341;0.714255;,
0.558010;0.562796;,
0.613095;0.565194;,
0.613095;0.565194;,
0.558010;0.562796;,
0.558010;0.562796;,
0.613095;0.565194;,
0.555848;0.618050;,
0.613219;0.565194;,
0.558176;0.562796;,
0.555848;0.618050;,
0.609727;0.622000;,
0.613219;0.565194;,
0.613095;0.565194;,
0.609602;0.622000;,
0.555682;0.618050;,
0.555682;0.618050;,
0.558010;0.562796;,
0.613095;0.565194;,
0.556807;0.624655;,
0.641973;0.634007;,
0.641973;0.634007;,
0.557976;0.758681;,
0.641973;0.634007;,
0.556807;0.624655;,
0.557976;0.758681;,
0.641389;0.765695;,
0.641973;0.634007;,
0.304854;0.534175;,
0.425726;0.729147;,
0.426711;0.537406;,
0.425726;0.729147;,
0.304854;0.534175;,
0.298808;0.718829;,
0.304854;0.534175;,
0.426711;0.537406;,
0.425726;0.729147;,
0.425726;0.729147;,
0.298808;0.718829;,
0.304854;0.534175;,
0.175570;0.820635;,
0.175570;0.843301;,
0.679678;0.843301;,
0.175570;0.820635;,
0.679678;0.843301;,
0.679678;0.820635;,
0.087268;0.929290;,
0.100546;0.825859;,
0.737029;0.825859;,
0.087268;0.929290;,
0.737029;0.825859;,
0.752002;0.929290;,
0.467143;0.827796;,
0.375391;0.933463;,
0.467143;0.933463;,
0.375391;0.933463;,
0.467143;0.827796;,
0.375391;0.827796;,
0.467143;0.933463;,
0.375391;0.933463;,
0.467143;0.827796;,
0.375391;0.827796;,
0.467143;0.827796;,
0.375391;0.933463;,
0.454818;0.942170;,
0.387975;0.942170;,
0.375391;0.933463;,
0.375391;0.933463;,
0.467143;0.933463;,
0.454818;0.942170;,
0.100389;0.944767;,
0.752002;0.929290;,
0.737588;0.945079;,
0.752002;0.929290;,
0.100389;0.944767;,
0.087268;0.929290;,
0.454818;0.942170;,
0.375391;0.933463;,
0.387975;0.942170;,
0.375391;0.933463;,
0.454818;0.942170;,
0.467143;0.933463;,
0.399970;0.638957;,
0.282078;0.581410;,
0.399850;0.590921;,
0.282078;0.581410;,
0.399970;0.638957;,
0.279354;0.628874;,
0.807833;0.883263;,
0.677114;0.845538;,
0.807833;0.845538;,
0.677114;0.883263;,
0.677114;0.845538;,
0.807833;0.883263;,
0.808091;0.881122;,
0.761559;0.845625;,
0.808212;0.845625;,
0.761439;0.881122;,
0.761559;0.845625;,
0.808091;0.881122;,
0.110536;0.762649;,
0.049502;0.762827;,
0.048777;0.901507;,
0.110536;0.762649;,
0.048777;0.901507;,
0.155941;0.849531;,
0.807833;0.883263;,
0.807833;0.845538;,
0.677114;0.845538;,
0.677114;0.883263;,
0.807833;0.883263;,
0.677114;0.845538;,
0.808091;0.881122;,
0.808212;0.845625;,
0.761559;0.845625;,
0.761439;0.881122;,
0.808091;0.881122;,
0.761559;0.845625;,
0.110536;0.762649;,
0.048777;0.901507;,
0.049502;0.762827;,
0.110536;0.762649;,
0.155941;0.849531;,
0.048777;0.901507;,
0.096804;0.661617;,
0.059782;0.741906;,
0.096804;0.741906;,
0.059782;0.741906;,
0.096804;0.661617;,
0.059782;0.661617;,
0.096804;0.741906;,
0.059782;0.741906;,
0.096804;0.661617;,
0.059782;0.661617;,
0.096804;0.661617;,
0.059782;0.741906;,
0.060316;0.741906;,
0.060316;0.661617;,
0.096470;0.661617;,
0.060316;0.741906;,
0.096470;0.661617;,
0.096470;0.741906;,
0.096804;0.661617;,
0.059782;0.741906;,
0.096804;0.741906;,
0.059782;0.741906;,
0.096804;0.661617;,
0.059782;0.661617;,
0.096804;0.741906;,
0.059782;0.741906;,
0.096804;0.661617;,
0.059782;0.661617;,
0.096804;0.661617;,
0.059782;0.741906;,
0.060316;0.741906;,
0.060316;0.661617;,
0.096470;0.661617;,
0.060316;0.741906;,
0.096470;0.661617;,
0.096470;0.741906;,
0.662012;0.594943;,
0.753691;0.594943;,
0.753691;0.594943;,
0.662012;0.594943;,
0.753691;0.594943;,
0.662012;0.594943;,
0.662156;0.699309;,
0.662156;0.594943;,
0.753275;0.594943;,
0.662156;0.699309;,
0.753275;0.594943;,
0.753275;0.699309;,
0.753691;0.594943;,
0.662012;0.699309;,
0.753691;0.699309;,
0.662012;0.699309;,
0.753691;0.594943;,
0.662012;0.594943;,
0.753691;0.699309;,
0.662012;0.699309;,
0.753691;0.594943;,
0.662012;0.594943;,
0.753691;0.594943;,
0.662012;0.699309;,
0.761696;0.531485;,
0.815190;0.531924;,
0.816467;0.596589;,
0.816467;0.596589;,
0.763353;0.594714;,
0.761696;0.531485;,
0.403509;0.759079;,
0.143915;0.810324;,
0.143915;0.760998;,
0.143915;0.810324;,
0.403509;0.759079;,
0.403509;0.810324;,
0.093341;0.542425;,
0.266962;0.542425;,
0.266962;0.714255;,
0.266962;0.714255;,
0.093341;0.714255;,
0.093341;0.542425;,
0.558010;0.562796;,
0.613095;0.565194;,
0.613095;0.565194;,
0.558010;0.562796;,
0.613095;0.565194;,
0.558010;0.562796;,
0.555848;0.618050;,
0.558176;0.562796;,
0.613219;0.565194;,
0.555848;0.618050;,
0.613219;0.565194;,
0.609727;0.622000;,
0.613095;0.565194;,
0.555682;0.618050;,
0.609602;0.622000;,
0.555682;0.618050;,
0.613095;0.565194;,
0.558010;0.562796;,
0.556807;0.624655;,
0.641973;0.634007;,
0.641973;0.634007;,
0.557976;0.758681;,
0.556807;0.624655;,
0.641973;0.634007;,
0.557976;0.758681;,
0.641973;0.634007;,
0.641389;0.765695;,
0.304854;0.534175;,
0.426711;0.537406;,
0.425726;0.729147;,
0.425726;0.729147;,
0.298808;0.718829;,
0.304854;0.534175;,
0.304854;0.534175;,
0.425726;0.729147;,
0.426711;0.537406;,
0.425726;0.729147;,
0.304854;0.534175;,
0.298808;0.718829;;
}  //End of MeshTextureCoords
 }
}
}
