
[const]
AI_v_max_erreich
90

[const]
AI_M_gas_max
15000

[const]
AI_F_brems_max
300000


[const]
Schienenstoss_Radpos_2
-2.5

[const]
Schienenstoss_Radpos_3
-11.8

[const]
Schienenstoss_Radpos_4
-14.3
