[{
    "name": "Base game",
    "folder": "base",
    "types": [{
            "name": "Standard vehicles",
            "friendlyname": "generic",
            "vehicles": [
                "vehicles\\VW_Golf_2\\AI_VW_Golf_2.bus\t7",
                "vehicles\\MB_W123_230E\\AI_mb_w123_230e.bus\t7",
                "vehicles\\MB_W123_230E\\AI_mb_w123_230e_cab.bus\t7",
                "vehicles\\VW_T3\\VW_T3_Van.ovh\t7",
                "vehicles\\Opel_Manta_B\\ai_opel_manta_b.ovh\t7",
                "vehicles\\Citr_BX\\BX.ovh\t7"
            ],
            "parklist": [
                "Vehicles\\MB_W123_230E\\parked_mb_w123_230e.sco",
                "Vehicles\\MB_W123_230E\\parked_mb_w123_230e.sco",
                "Vehicles\\MB_W123_230E\\parked_mb_w123_230e.sco",
                "Vehicles\\VW_Golf_2\\parked_vw_golf_2.sco",
                "Vehicles\\VW_Golf_2\\parked_vw_golf_2.sco",
                "Vehicles\\VW_Golf_2\\parked_vw_golf_2.sco",
                "vehicles\\VW_T3\\VW_T3_Van_Parked.sco",
                "Vehicles\\Opel_Manta_B\\parked_opel_manta_b.sco",
                "vehicles\\Citr_BX\\BX_Parked.sco",
                "vehicles\\Citr_BX\\BX_Parked.sco",
                "vehicles\\MB_T1\\parked_mb_t1_kasten.sco"
            ]
        },
        {
            "name": "Emergency vehicles (ambulances, police, firetrucks etc)",
            "friendlyname": "emergency",
            "vehicles": [
                "vehicles\\MB_T1\\ai_mb_t1_rtw.ovh\t0.1"
            ]
        },
        {
            "name": "Commercial vehicles (vans)",
            "friendlyname": "commercial",
            "vehicles": [
                "vehicles\\MB_T1\\ai_mb_t1_kasten.ovh\t6",
                "vehicles\\VW_T3\\VW_T3_Transporter.ovh\t6"
            ]
        },
        {
            "name": "Trucks",
            "friendlyname": "trucks",
            "vehicles": [
                "vehicles\\MAN_F90\\AI_MAN_F90_Wechselbruecke.bus\t6"
            ]
        },
        {
            "name": "Special vehicles (taxis)",
            "friendlyname": "special",
            "vehicles": [
                "vehicles\\MB_T1\\ai_mb_t1_rtw.ovh\t3",
                "vehicles\\MB_W123_230E\\AI_mb_w123_230e_cab.bus\t3"
            ]
        }
    ]
}, {
    "name": "Bad Huegelsdorf_2020",
    "folder": "bdhugeledsorf",
    "types": [{
            "name": "Standard vehicles",
            "friendlyname": "generic",
            "vehicles": [
                "vehicles\\Bad_Huegelsdorf_KI_Fahrzeuge\\Kaefer\\Kaefer.ovh\t12",
                "vehicles\\Bad_Huegelsdorf_KI_Fahrzeuge\\Q2\\Q2.ovh\t14",
                "vehicles\\Bad_Huegelsdorf_KI_Fahrzeuge\\C4\\C4.ovh\t14",
                "vehicles\\Bad_Huegelsdorf_KI_Fahrzeuge\\Captur\\Captur.ovh\t14",
                "vehicles\\Bad_Huegelsdorf_KI_Fahrzeuge\\Evoque\\Evoque.ovh\t15",
                "vehicles\\Bad_Huegelsdorf_Feuerwehr\\Feuerwehr.ovh\t2",
                "vehicles\\Bad_Huegelsdorf_Polizei\\T6\\T6.ovh\t2",
                "vehicles\\Bad_Huegelsdorf_Rettungswagen\\RTW.ovh\t2",
                "vehicles\\Bad_Huegelsdorf_KI_Fahrzeuge\\Civic\\Civic.ovh\t14",
                "vehicles\\Bad_Huegelsdorf_KI_Fahrzeuge\\XC90\\XC90.ovh\t14",
                "vehicles\\Bad_Huegelsdorf_KI_Fahrzeuge\\RAV4\\RAV4.ovh\t14",
                "vehicles\\Bad_Huegelsdorf_Kehrmaschine\\Bad_Huegelsdorf_kehrmaschine.bus\t1"
            ],
            "parklist": [
                "vehicles\\Bad_Huegelsdorf_KI_Fahrzeuge\\Kaefer\\Kaefer_parked.sco",
                "vehicles\\Bad_Huegelsdorf_KI_Fahrzeuge\\Q2\\Q2_parked.sco",
                "vehicles\\Bad_Huegelsdorf_KI_Fahrzeuge\\C4\\C4_parked.sco",
                "vehicles\\Bad_Huegelsdorf_KI_Fahrzeuge\\RAV4\\RAV4_parked.sco",
                "vehicles\\Bad_Huegelsdorf_KI_Fahrzeuge\\Captur\\Captur_parked.sco",
                "vehicles\\Bad_Huegelsdorf_KI_Fahrzeuge\\XC90\\XC90_parked.sco",
                "vehicles\\Bad_Huegelsdorf_KI_Fahrzeuge\\Evoque\\Evoque_parked.sco",
                "vehicles\\Bad_Huegelsdorf_KI_Fahrzeuge\\Civic\\Civic_parked.sco"
            ]
        },
        {
            "name": "Emergency vehicles (ambulances, police, firetrucks etc)",
            "friendlyname": "emergency",
            "vehicles": [
                "vehicles\\Bad_Huegelsdorf_Feuerwehr\\Feuerwehr_active.ovh\t1",
                "vehicles\\Bad_Huegelsdorf_Feuerwehr2\\DLK_L40A_XS.bus\t1",
                "vehicles\\Bad_Huegelsdorf_Feuerwehr2\\TLF_20-40.bus\t1",
                "vehicles\\Bad_Huegelsdorf_Rettungswagen\\RTW_active.ovh\t1",
                "vehicles\\Bad_Huegelsdorf_Polizei\\T6\\T6_active.ovh\t1",
                "vehicles\\Bad_Huegelsdorf_Touran\\VW_Touran_Polizei_active.ovh\t1"
            ]
        },
        {
            "name": "Commercial vehicles (vans)",
            "friendlyname": "commercial",
            "vehicles": [
                "vehicles\\Bad_Huegelsdorf_KI_Fahrzeuge\\Towtruck\\Towtruck.ovh\t2",
                "vehicles\\Bad_Huegelsdorf_KI_Fahrzeuge\\T5\\T5.ovh\t5",
                "vehicles\\Bad_Huegelsdorf_KI_Fahrzeuge\\Sprinter\\Sprinter.ovh\t5"
            ]
        },
        {
            "name": "Trucks",
            "friendlyname": "trucks",
            "vehicles": [
                "vehicles\\Bad_Huegelsdorf_Baufahrzeuge\\LKW_Kipper.ovh\t2",
                "Vehicles\\Bad_Huegelsdorf_KI_Fahrzeuge\\Truck\\Truck.ovh\t2"
            ]
        },
        {
            "name": "Special vehicles (taxis)",
            "friendlyname": "special",
            "vehicles": [
                "vehicles\\Bad_Huegelsdorf_Taxen\\S-Klasse_Taxi.ovh\t5",
                "vehicles\\Bad_Huegelsdorf_Taxen\\A4_Avant_Taxi.ovh\t5"
            ]
        }
    ]
}, {
    "name": "Hamburg",
    "folder": "hamburg",
    "types": [{
            "name": "Standard vehicles",
            "friendlyname": "generic",
            "vehicles": [
                "vehicles\\HH109_KIPKW1\\ai_hh109kipkw1.bus\t13",
                "vehicles\\HH109_KIPKW2\\ai_hh109kipkw2.bus\t13",
                "vehicles\\HH109_KIPKW3\\ai_hh109kipkw3.bus\t13",
                "vehicles\\HH109_KIPKW4\\ai_hh109kipkw4.bus\t13",
                "vehicles\\HH109_KIPKW4\\ai_hh109kipkw4_stufenheck.bus\t13",
                "vehicles\\HH109_KIPKW5\\ai_hh109kipkw5_ziv.bus\t13",
                "vehicles\\HH109_KIPKW6\\ai_hh109kipkw6.bus\t13",
                "vehicles\\HH109_KIPKW7\\ai_hh109kipkw7_ziv.bus\t13",
                "vehicles\\HH109_KIPKW7\\ai_hh109kipkw7_paket.bus\t5",
                "vehicles\\HH109_KIPKW7\\ai_hh109kipkw7_ambu.bus\t5"
            ],
            "parklist": [
                "vehicles\\HH109_KIPKW1\\parked_hh109kipkw1.sco",
                "vehicles\\HH109_KIPKW1\\parked_hh109kipkw1.sco",
                "vehicles\\HH109_KIPKW1\\parked_hh109kipkw1.sco",
                "vehicles\\HH109_KIPKW2\\parked_hh109kipkw2.sco",
                "vehicles\\HH109_KIPKW3\\parked_hh109kipkw3.sco",
                "vehicles\\HH109_KIPKW3\\parked_hh109kipkw3.sco",
                "vehicles\\HH109_KIPKW4\\parked_hh109kipkw4.sco",
                "vehicles\\HH109_KIPKW4\\parked_hh109kipkw4_stufenheck.sco",
                "vehicles\\HH109_KIPKW4\\parked_hh109kipkw4_stufenheck.sco",
                "vehicles\\HH109_KIPKW5\\parked_hh109kipkw5_ziv.sco",
                "vehicles\\HH109_KIPKW5\\parked_hh109kipkw5_ziv.sco"
            ]
        },
        {
            "name": "Emergency vehicles (ambulances, police, firetrucks etc)",
            "friendlyname": "emergency",
            "vehicles": [
                "vehicles\\HH109_KIPKW7\\ai_hh109kipkw7_ambu_active.bus\t5",
                "vehicles\\HH109_KIPKW5\\ai_hh109kipkw5_pol_active.bus\t5"
            ]
        },
        {
            "name": "Special vehicles (taxis)",
            "friendlyname": "special",
            "vehicles": [
                "vehicles\\HH109_KIPKW5\\ai_hh109kipkw5_taxi.bus\t2",
                "vehicles\\HH109_KIPKW5\\ai_hh109kipkw5_pol.bus\t2"
            ]
        }
    ]
}, {
    "name": "Hamburg Hafencity",
    "folder": "hafencity",
    "types": [{
            "name": "Standard vehicles",
            "friendlyname": "generic",
            "vehicles": [
                "vehicles\\HC_KIPKW1\\ai_hckipkw1.ovh\t13",
                "vehicles\\HC_KIPKW2\\ai_hckipkw2.ovh\t13",
                "vehicles\\HC_KIPKW3\\ai_hckipkw3.ovh\t13",
                "vehicles\\HC_KIPKW3\\ai_hckipkw3_paket.ovh\t13",
                "vehicles\\HC_KIPKW4\\ai_hckipkw4.ovh\t13",
                "vehicles\\HC_KIPKW5\\ai_hckipkw5.ovh\t13",
                "vehicles\\HC_KIPKW6\\ai_hckipkw6.ovh\t13",
                "vehicles\\HC_KIPKW7\\ai_hckipkw7.ovh\t13",
                "vehicles\\HC_KIPKW8\\ai_hckipkw8.ovh\t13"
            ],
            "parklist": [
                "vehicles\\HC_KIPKW2\\parked_hckipkw2.sco",
                "vehicles\\HC_KIPKW2\\parked_hckipkw2.sco",
                "vehicles\\HC_KIPKW3\\parked_hckipkw3.sco",
                "vehicles\\HC_KIPKW4\\parked_hckipkw4.sco",
                "vehicles\\HC_KIPKW4\\parked_hckipkw4.sco",
                "vehicles\\HC_KIPKW4\\parked_hckipkw4.sco",
                "vehicles\\HC_KIPKW4\\parked_hckipkw4.sco",
                "vehicles\\HC_KIPKW5\\parked_hckipkw5.sco",
                "vehicles\\HC_KIPKW5\\parked_hckipkw5.sco",
                "vehicles\\HC_KIPKW5\\parked_hckipkw5.sco",
                "vehicles\\HC_KIPKW5\\parked_hckipkw5.sco",
                "vehicles\\HC_KIPKW6\\parked_hckipkw6.sco",
                "vehicles\\HC_KIPKW6\\parked_hckipkw6.sco",
                "vehicles\\HC_KIPKW6\\parked_hckipkw6.sco",
                "vehicles\\HC_KIPKW6\\parked_hckipkw6.sco",
                "vehicles\\HC_KIPKW7\\parked_hckipkw7.sco",
                "vehicles\\HC_KIPKW7\\parked_hckipkw7.sco",
                "vehicles\\HC_KIPKW7\\parked_hckipkw7.sco",
                "vehicles\\HC_KIPKW8\\parked_hckipkw8.sco",
                "vehicles\\HC_KIPKW8\\parked_hckipkw8.sco"
            ]
        },
        {
            "name": "Emergency vehicles (ambulances, police, firetrucks etc)",
            "friendlyname": "emergency",
            "vehicles": [
                "vehicles\\HC_KIPKW5\\ai_hckipkw5_polizei_active.ovh\t5"
            ]
        },
        {
            "name": "Special vehicles (taxis)",
            "friendlyname": "special",
            "vehicles": [
                "vehicles\\HC_KIPKW5\\ai_hckipkw5_taxi.ovh\t2",
                "vehicles\\HC_KIPKW5\\ai_hckipkw5_polizei.ovh\t2"
            ]
        }
    ]
}, {
    "name": "Hamburg Line 20",
    "folder": "hh20",
    "types": [{
            "name": "Standard vehicles",
            "friendlyname": "generic",
            "vehicles": [
                "vehicles\\HH20_KIPKW1\\ai_hckipkw1.ovh",
                "vehicles\\HH20_KIPKW2\\ai_hckipkw2.ovh",	
                "vehicles\\HH20_KIPKW3\\ai_hckipkw3.ovh",
                "vehicles\\HH20_KIPKW3\\ai_hckipkw3_paket.ovh",
                "vehicles\\HH20_KIPKW4\\ai_hckipkw4.ovh",	
                "vehicles\\HH20_KIPKW5\\ai_hckipkw5.ovh",	
                "vehicles\\HH20_KIPKW6\\ai_hckipkw6.ovh",	
                "vehicles\\HH20_KIPKW11\\ai_hckipkw11.ovh",	
                "vehicles\\HH20_KIPKW11\\ai_hckipkw11_miles.ovh",
                "vehicles\\HH20_KIPKW12\\ai_hckipkw12.ovh",	
                "vehicles\\HH20_KIPKW12\\ai_hckipkw12_share.ovh",
                "vehicles\\HH20_KIPKW13\\ai_hckipkw13.ovh",
                "vehicles\\HH20_KIMotorroller\\HH4_motorroller.bus",
                "vehicles\\HH20_KIMotorroller\\HH4_motorroller_f.bus",
                "vehicles\\HH20_KIPKW14\\ai_hckipkw14.ovh",	
                "vehicles\\HH20_KIPKW10\\ai_hckipkw10.bus"
            ],
            "parklist": [
                "vehicles\\HH20_KIPKW2\\parked_hckipkw2.sco",
                "vehicles\\HH20_KIPKW2\\parked_hckipkw2.sco",
                "vehicles\\HH20_KIPKW3\\parked_hckipkw3.sco",
                "vehicles\\HH20_KIPKW4\\parked_hckipkw4.sco",
                "vehicles\\HH20_KIPKW4\\parked_hckipkw4.sco",
                "vehicles\\HH20_KIPKW4\\parked_hckipkw4.sco",
                "vehicles\\HH20_KIPKW4\\parked_hckipkw4.sco",
                "vehicles\\HH20_KIPKW5\\parked_hckipkw5.sco",
                "vehicles\\HH20_KIPKW5\\parked_hckipkw5.sco",
                "vehicles\\HH20_KIPKW5\\parked_hckipkw5.sco",
                "vehicles\\HH20_KIPKW5\\parked_hckipkw5.sco",
                "vehicles\\HH20_KIPKW6\\parked_hckipkw6.sco",
                "vehicles\\HH20_KIPKW6\\parked_hckipkw6.sco",
                "vehicles\\HH20_KIPKW6\\parked_hckipkw6.sco",
                "vehicles\\HH20_KIPKW6\\parked_hckipkw6.sco",
                "vehicles\\HH20_KIPKW11\\parked_hckipkw11.sco",
                "vehicles\\HH20_KIPKW11\\parked_hckipkw11.sco",
                "vehicles\\HH20_KIPKW11\\parked_hckipkw11.sco",
                "vehicles\\HH20_KIPKW12\\parked_hckipkw12.sco",
                "vehicles\\HH20_KIPKW12\\parked_hckipkw12.sco",
                "vehicles\\HH20_KIPKW12\\parked_hckipkw12_share.sco",
                "vehicles\\HH20_KIPKW13\\parked_hckipkw13.sco",
                "vehicles\\HH20_KIPKW14\\parked_hckipkw14.sco",
                "vehicles\\HH20_KIPKW14\\parked_hckipkw14.sco"
            ]
        },
        {
            "name": "Emergency vehicles (ambulances, police, firetrucks etc)",
            "friendlyname": "emergency",
            "vehicles": [
                "vehicles\\HH20_KIPKW5\\ai_hckipkw5_polizei_active.ovh"
            ]
        },
        {
            "name": "Special vehicles (taxis, nonactive police)",
            "friendlyname": "special",
            "vehicles": [
                "vehicles\\HH20_KIPKW5\\ai_hckipkw5_polizei.ovh",
                "vehicles\\HH20_KIPKW5\\ai_hckipkw5_taxi.ovh"
            ]
        }
    ]
}, {
    "name": "London",
    "folder": "london",
    "types": [{
            "name": "Standard vehicles",
            "friendlyname": "generic",
            "vehicles": [
                "vehicles\\WH_UK_AI_AOL\\_Road\\Focus_Mk1_Facelift.ovh\t15",
                "vehicles\\WH_UK_AI_AOL\\_Road\\Mini_F56.ovh\t15",
                "vehicles\\WH_UK_AI_AOL\\_Road\\Range_Rover_L405.ovh\t15",
                "vehicles\\WH_UK_AI_AOL\\_Road\\EClass_W212_Facelift.ovh\t15",
                "vehicles\\WH_UK_AI_AOL\\_Road\\Prius_XW30.ovh\t15"
            ],
            "parklist": [
                "vehicles\\WH_UK_AI_AOL\\_Road\\Focus_Mk1_Facelift_parked.sco",
                "vehicles\\WH_UK_AI_AOL\\_Road\\Mini_F56_parked.sco",
                "vehicles\\WH_UK_AI_AOL\\_Road\\Range_Rover_L405_parked.sco",
                "vehicles\\WH_UK_AI_AOL\\_Road\\Transit_Mk4_Facelift_swb_van_parked.sco",
                "vehicles\\WH_UK_AI_AOL\\_Road\\Transit_Mk4_Facelift_swb_combi_parked.sco",
                "vehicles\\WH_UK_AI_AOL\\_Road\\Transit_Mk4_Facelift_swb_bus_parked.sco",
                "vehicles\\WH_UK_AI_AOL\\_Road\\TX4_parked.sco",
                "vehicles\\WH_UK_AI_AOL\\_Road\\EClass_W212_Facelift_parked.sco",
                "vehicles\\WH_UK_AI_AOL\\_Road\\Prius_XW30_parked.sco"
            ]
        },
        {
            "name": "Emergency vehicles (ambulances, police, firetrucks etc)",
            "friendlyname": "emergency",
            "vehicles": [
                "vehicles\\WH_UK_AI_AOL\\_Road\\_Emergency\\fireengine.ovh\t5",
                "vehicles\\WH_UK_AI_AOL\\_Road\\_Emergency\\ambulance.ovh\t5",
                "vehicles\\WH_UK_AI_AOL\\_Road\\_Emergency\\policecar.ovh\t5",
                "vehicles\\WH_UK_AI_AOL\\_Road\\_Emergency\\fireengine_alert.ovh\t5",
                "vehicles\\WH_UK_AI_AOL\\_Road\\_Emergency\\ambulance_alert.ovh\t5",
                "vehicles\\WH_UK_AI_AOL\\_Road\\_Emergency\\policecar_alert.ovh\t5"
            ]
        },
        {
            "name": "Commercial vehicles (vans)",
            "friendlyname": "commercial",
            "vehicles": [
                "vehicles\\WH_UK_AI_AOL\\_Road\\Transit_Mk4_Facelift_swb_van.ovh\t7",
                "vehicles\\WH_UK_AI_AOL\\_Road\\Transit_Mk4_Facelift_swb_combi.ovh\t7",
                "vehicles\\WH_UK_AI_AOL\\_Road\\Transit_Mk4_Facelift_swb_bus.ovh\t7"
            ]
        },
        {
            "name": "Special vehicles (taxis)",
            "friendlyname": "special",
            "vehicles": [
                "vehicles\\WH_UK_AI_AOL\\_Road\\TX4.ovh\t5"
            ]
        }
    ]
}, {
    "name": "Berlin X10",
    "folder": "X10",
    "types": [{
            "name": "Standard vehicles",
            "friendlyname": "generic",
            "vehicles": [
                "vehicles\\X10 Clio\\Clio.ovh\t13",
                "vehicles\\X10 Corolla\\Corolla.ovh\t13",
                "vehicles\\X10 Megane\\Megane.ovh\t13",
                "vehicles\\X10 Tiguan\\Tiguan.ovh\t13",
                "vehicles\\X10 Zafira\\Zafira.ovh\t13",
                "vehicles\\Peugeot 106\\ai_peugeot_106_S1.ovh\t13",
                "vehicles\\Citr_BX\\BX.ovh\t13",
                "vehicles\\VW_Golf_2\\AI_VW_Golf_2.bus\t7"
            ],
            "parklist": [
                "vehicles\\X10 Clio\\Clio_parked.sco",
                "vehicles\\X10 Clio\\Clio_parked.sco",
                "vehicles\\X10 Clio\\Clio_parked.sco",
                "vehicles\\X10 Corolla\\Corolla_parked.sco",
                "vehicles\\X10 Corolla\\Corolla_parked.sco",
                "vehicles\\X10 Megane\\Megane_parked.sco",
                "vehicles\\X10 Megane\\Megane_parked.sco",
                "vehicles\\X10 Megane\\Megane_parked.sco",
                "vehicles\\X10 Tiguan\\Tiguan_parked.sco",
                "vehicles\\X10 Tiguan\\Tiguan_parked.sco",
                "vehicles\\X10 Tiguan\\Tiguan_parked.sco",
                "vehicles\\X10 Zafira\\Zafira_parked.sco",
                "vehicles\\X10 Zafira\\Zafira_parked.sco",
                "vehicles\\X10 Zafira\\Zafira_parked.sco",
                "vehicles\\X10 Zafira\\Zafira_parked.sco"
            ]
        },
        {
            "name": "Emergency vehicles (ambulances, police, firetrucks etc)",
            "friendlyname": "emergency",
            "vehicles": [
                "vehicles\\X10 Ambulanz\\Ambulanz_active.ovh\t5",
                "vehicles\\X10 Feuerwehr\\Feuerwehr_active.ovh\t5"
            ]
        },
        {
            "name": "Commercial vehicles (vans)",
            "friendlyname": "commercial",
            "vehicles": [
                "vehicles\\X10 Sprinter\\Sprinter.ovh\t7"
            ]
        },
        {
            "name": "Trucks",
            "friendlyname": "trucks",
            "vehicles": [
                "vehicles\\X10 R420\\R420-Trailer1.ovh\t5",
                "vehicles\\X10 R420\\R420.ovh\t5"
            ]
        },
        {
            "name": "Special vehicles (taxis)",
            "friendlyname": "special",
            "vehicles": [
                "vehicles\\X10 S-Klasse\\S-Klasse_Taxi.ovh\t5"
            ]
        }
    ]
}, {
    "name": "Berlin BRT",
    "folder": "Berlin-BRT",
    "types": [{
            "name": "Standard vehicles",
            "friendlyname": "generic",
            "vehicles": [
                "vehicles\\X10 Clio\\Clio.ovh",
                "vehicles\\X10 Corolla\\Corolla.ovh",
                "vehicles\\X10 Megane\\Megane.ovh",
                "vehicles\\X10 Tiguan\\Tiguan.ovh",
                "vehicles\\X10 Zafira\\Zafira.ovh",
                "vehicles\\X10 S-Klasse\\S-Klasse.ovh",
                "vehicles\\VW_Golf_2\\AI_VW_Golf_2.bus",
                "vehicles\\X10_BRT_KI\\C3\\C3.ovh",
                "vehicles\\X10_BRT_KI\\Tucson\\Tucson.ovh",
                "vehicles\\X10_BRT_KI\\Mazda6\\Mazda6.ovh",
                "vehicles\\X10_BRT_KI\\B-Klasse\\B-Klasse.ovh",
                "vehicles\\X10_BRT_KI\\308\\308.ovh",
                "vehicles\\X10_BRT_KI\\Clio\\Clio.ovh"
            ],
            "parklist": [
                "vehicles\\X10 Clio\\Clio_parked.sco",
                "vehicles\\X10 Corolla\\Corolla_parked.sco",
                "vehicles\\X10 Megane\\Megane_parked.sco",
                "vehicles\\X10 Tiguan\\Tiguan_parked.sco",
                "vehicles\\X10 Zafira\\Zafira_parked.sco",
                "vehicles\\X10 S-Klasse\\S-Klasse_Parked.sco",
                "Vehicles\\VW_Golf_2\\parked_vw_golf_2.sco",
                "vehicles\\MB_T1\\parked_mb_t1_kasten.sco",
                "vehicles\\X10_BRT_KI\\C3\\C3_parked.sco",
                "vehicles\\X10_BRT_KI\\Tucson\\Tucson_parked.sco",
                "vehicles\\X10_BRT_KI\\Mazda6\\Mazda6_parked.sco",
                "vehicles\\X10_BRT_KI\\B-Klasse\\B-Klasse_parked.sco",
                "vehicles\\X10_BRT_KI\\308\\308_parked.sco",
                "vehicles\\X10_BRT_KI\\Clio\\Clio_parked.sco"
            ]
        },
        {
            "name": "Emergency vehicles (ambulances, police, firetrucks etc)",
            "friendlyname": "emergency",
            "vehicles": [
                "vehicles\\X10 Ambulanz\\Ambulanz_active.ovh",
                "vehicles\\X10 Feuerwehr\\Feuerwehr_active.ovh"
            ]
        },
        {
            "name": "Commercial vehicles (vans)",
            "friendlyname": "commercial",
            "vehicles": [
                "vehicles\\MB_T1\\ai_mb_t1_kasten.ovh",
                "vehicles\\VW_T3\\VW_T3_Transporter.ovh",
                "vehicles\\X10 Sprinter\\Sprinter.ovh"
            ]
        },
        {
            "name": "Trucks",
            "friendlyname": "trucks",
            "vehicles": [
                "vehicles\\MAN_F90\\AI_MAN_F90_Wechselbruecke.bus",
                "vehicles\\X10 R420\\R420-Trailer1.ovh",
                "vehicles\\X10 R420\\R420.ovh"
            ]
        },
        {
            "name": "Special vehicles (taxis)",
            "friendlyname": "special",
            "vehicles": [
                "vehicles\\X10 S-Klasse\\S-Klasse_Taxi.ovh\t5"
            ]
        }
    ]
}]