{
    "Version": 202303151516,
    "DownloadUrl": "https://cloud.gameburrow.codes/s/Ew2BJ9Br9q4Yx5C/download",
    "Version_V2": 202412261413,
    "DownloadUrl_V2": "https://cloud.gameburrow.codes/s/paS4w6eSgjX8gDb/download"
}